<?xml version="1.0" standalone="no"?>
<!DOCTYPE svg PUBLIC "-//W3C//DTD SVG 1.1//EN" "http://www.w3.org/Graphics/SVG/1.1/DTD/svg11.dtd">
<svg xmlns="http://www.w3.org/2000/svg">
<metadata>Generated by Fontastic.me</metadata>
<defs>
<font id="untitled-font-5" horiz-adv-x="512">
<font-face font-family="untitled-font-5" units-per-em="512" ascent="480" descent="-32"/>
<missing-glyph horiz-adv-x="512" />

<glyph glyph-name="bookmark-black-shape" unicode="&#101;" d="M466 495c-4 6-10 11-18 14-5 2-10 3-15 3l0 0-354 0c-6 0-10-1-15-3-8-3-14-8-18-14-4-6-7-13-7-21l0-436c0-8 3-15 7-21 4-6 10-11 18-14 5-2 9-3 15-3 10 0 20 4 28 11l149 144 149-144c8-7 17-11 28-11 6 0 11 1 15 3 8 3 14 8 18 14 4 6 7 13 7 21l0 436c0 8-3 15-7 21z"/>
</font></defs></svg>
